{"meta":{"tab":"overview","page":1,"sort_direction":"asc","sort_by":"closest_payment_ex_date","total_pages":3,"total_records":50,"total_funds_count":null},"data":[{"symbol":{"type":"link","text":"HFBL","url":"/dividend-stocks/financial/savings-and-loans/hfbl-home-federal-bancorp-inc-la/"},"stock_name,security_category":{"type":"link_with_tag","text":"Home Federal Bancorp, Inc. (LA)","tag":"Common","url":"/dividend-stocks/financial/savings-and-loans/hfbl-home-federal-bancorp-inc-la/"},"dars_overall":{"type":"lock","html":"<a class=\"fa fa-lock t-text-orange-400\" href=\"/order/premium/\"></a>"},"closest_payment_ex_date":"2020-01-24","closest_payment_adjusted_amount":"$0.1600","closest_payment_payable_date":"2020-02-10","closest_payment_qualification":"Qualified","last_price":"$36.84","latest_yield":"1.74%"},{"symbol":{"type":"link","text":"EXCH","url":"/dividend-stocks/uncategorized/other/exch-exchange-bankshares-inc/"},"stock_name,security_category":{"type":"link_with_tag","text":"Exchange Bankshares Inc.","tag":null,"url":"/dividend-stocks/uncategorized/other/exch-exchange-bankshares-inc/"},"dars_overall":{"type":"lock","html":"<a class=\"fa fa-lock t-text-orange-400\" href=\"/order/premium/\"></a>"},"closest_payment_ex_date":"2020-01-24","closest_payment_adjusted_amount":"$0.2400","closest_payment_payable_date":"2020-02-03","closest_payment_qualification":"Qualified","last_price":"$49.50","latest_yield":"1.95%"},{"symbol":{"type":"link","text":"RMR","url":"/dividend-stocks/financial/real-estate-development/rmr-the-rmr-group-inc/"},"stock_name,security_category":{"type":"link_with_tag","text":"The RMR Group Inc.","tag":"Common","url":"/dividend-stocks/financial/real-estate-development/rmr-the-rmr-group-inc/"},"dars_overall":{"type":"lock","html":"<a class=\"fa fa-lock t-text-orange-400\" href=\"/order/premium/\"></a>"},"closest_payment_ex_date":"2020-01-24","closest_payment_adjusted_amount":"$0.3800","closest_payment_payable_date":"2020-02-20","closest_payment_qualification":"Qualified","last_price":"$45.30","latest_yield":"3.38%"},{"symbol":{"type":"link","text":"SVC","url":"/dividend-stocks/uncategorized/other/svc-service-properties-trust/"},"stock_name,security_category":{"type":"link_with_tag","text":"Service Properties Trust","tag":null,"url":"/dividend-stocks/uncategorized/other/svc-service-properties-trust/"},"dars_overall":{"type":"lock","html":"<a class=\"fa fa-lock t-text-orange-400\" href=\"/order/premium/\"></a>"},"closest_payment_ex_date":"2020-01-24","closest_payment_adjusted_amount":"$0.5400","closest_payment_payable_date":"2020-02-20","closest_payment_qualification":"Non-Qualified","last_price":"$23.06","latest_yield":"9.09%"},{"symbol":{"type":"link","text":"USAC","url":"/dividend-stocks/basic-materials/oil-and-gas-equipment-and-services/usac-usa-compression-partners-lp/"},"stock_name,security_category":{"type":"link_with_tag","text":"Usa Compression Partners LP","tag":"MLP","url":"/dividend-stocks/basic-materials/oil-and-gas-equipment-and-services/usac-usa-compression-partners-lp/"},"dars_overall":{"type":"lock","html":"<a class=\"fa fa-lock t-text-orange-400\" href=\"/order/premium/\"></a>"},"closest_payment_ex_date":"2020-01-24","closest_payment_adjusted_amount":"$0.5250","closest_payment_payable_date":"2020-02-07","closest_payment_qualification":"Unknown","last_price":"$16.39","latest_yield":"12.23%"},{"symbol":{"type":"link","text":"SBHO","url":"/dividend-stocks/uncategorized/other/sbho-steuben-trust-corp/"},"stock_name,security_category":{"type":"link_with_tag","text":"Steuben Trust Corp.","tag":null,"url":"/dividend-stocks/uncategorized/other/sbho-steuben-trust-corp/"},"dars_overall":{"type":"lock","html":"<a class=\"fa fa-lock t-text-orange-400\" href=\"/order/premium/\"></a>"},"closest_payment_ex_date":"2020-01-24","closest_payment_adjusted_amount":"$0.3550","closest_payment_payable_date":"2020-02-06","closest_payment_qualification":"Qualified","last_price":"$68.81","latest_yield":"2.06%"},{"symbol":{"type":"link","text":"VNO","url":"/dividend-stocks/financial/real-estate-development/vno-vornado-realty-trust/"},"stock_name,security_category":{"type":"link_with_tag","text":"Vornado Realty Trust","tag":"REIT","url":"/dividend-stocks/financial/real-estate-development/vno-vornado-realty-trust/"},"dars_overall":{"type":"lock","html":"<a class=\"fa fa-lock t-text-orange-400\" href=\"/order/premium/\"></a>"},"closest_payment_ex_date":"2020-01-24","closest_payment_adjusted_amount":"$0.6600","closest_payment_payable_date":"2020-02-14","closest_payment_qualification":"Non-Qualified","last_price":"$67.31","latest_yield":"3.85%"},{"symbol":{"type":"link","text":"TNP-PR-F","url":"/dividend-stocks/uncategorized/other/tnp_pr_f-tsakos-energy-navigation-limited-fxdfr-prf-perpetual-usd-25-ser-f/"},"stock_name,security_category":{"type":"link_with_tag","text":"Tsakos Energy Navigation Limited - FXDFR PRF PERPETUAL USD 25 - Ser F","tag":null,"url":"/dividend-stocks/uncategorized/other/tnp_pr_f-tsakos-energy-navigation-limited-fxdfr-prf-perpetual-usd-25-ser-f/"},"dars_overall":{"type":"lock","html":"<a class=\"fa fa-lock t-text-orange-400\" href=\"/order/premium/\"></a>"},"closest_payment_ex_date":"2020-01-24","closest_payment_adjusted_amount":"$0.5938","closest_payment_payable_date":"2020-01-30","closest_payment_qualification":"Unknown","last_price":"$24.27","latest_yield":"9.50%"},{"symbol":{"type":"link","text":"BK","url":"/dividend-stocks/financial/money-center-banks/bk-bank-of-new-york-mellon/"},"stock_name,security_category":{"type":"link_with_tag","text":"Bank of New York Mellon","tag":"Common","url":"/dividend-stocks/financial/money-center-banks/bk-bank-of-new-york-mellon/"},"dars_overall":{"type":"lock","html":"<a class=\"fa fa-lock t-text-orange-400\" href=\"/order/premium/\"></a>"},"closest_payment_ex_date":"2020-01-24","closest_payment_adjusted_amount":"$0.3100","closest_payment_payable_date":"2020-02-07","closest_payment_qualification":"Qualified","last_price":"$45.95","latest_yield":"2.70%"},{"symbol":{"type":"link","text":"JNES","url":"/dividend-stocks/uncategorized/other/jnes-jonestown-bank-and-trust-co/"},"stock_name,security_category":{"type":"link_with_tag","text":"Jonestown Bank & Trust Co","tag":null,"url":"/dividend-stocks/uncategorized/other/jnes-jonestown-bank-and-trust-co/"},"dars_overall":{"type":"lock","html":"<a class=\"fa fa-lock t-text-orange-400\" href=\"/order/premium/\"></a>"},"closest_payment_ex_date":"2020-01-24","closest_payment_adjusted_amount":"$0.2000","closest_payment_payable_date":"2020-01-31","closest_payment_qualification":"Qualified","last_price":"$24.40","latest_yield":"3.28%"},{"symbol":{"type":"link","text":"ALPIB","url":"/dividend-stocks/uncategorized/other/alpib-alpine-bks-colo-ordinary-shares-class-b/"},"stock_name,security_category":{"type":"link_with_tag","text":"Alpine Bks Colo - Ordinary Shares - Class B","tag":null,"url":"/dividend-stocks/uncategorized/other/alpib-alpine-bks-colo-ordinary-shares-class-b/"},"dars_overall":{"type":"lock","html":"<a class=\"fa fa-lock t-text-orange-400\" href=\"/order/premium/\"></a>"},"closest_payment_ex_date":"2020-01-24","closest_payment_adjusted_amount":"$31.0000","closest_payment_payable_date":"2020-02-03","closest_payment_qualification":"Unknown","last_price":"$4,964.75","latest_yield":"2.51%"},{"symbol":{"type":"link","text":"ALX","url":"/dividend-stocks/financial/property-management/alx-alexanders-inc/"},"stock_name,security_category":{"type":"link_with_tag","text":"Alexander's Inc.","tag":"REIT","url":"/dividend-stocks/financial/property-management/alx-alexanders-inc/"},"dars_overall":{"type":"lock","html":"<a class=\"fa fa-lock t-text-orange-400\" href=\"/order/premium/\"></a>"},"closest_payment_ex_date":"2020-01-24","closest_payment_adjusted_amount":"$4.5000","closest_payment_payable_date":"2020-02-14","closest_payment_qualification":"Non-Qualified","last_price":"$340.17","latest_yield":"5.29%"},{"symbol":{"type":"link","text":"CZNC","url":"/dividend-stocks/financial/regional-mid-atlantic-banks/cznc-citizens-and-northern-corp/"},"stock_name,security_category":{"type":"link_with_tag","text":"Citizens & Northern Corp","tag":"Common","url":"/dividend-stocks/financial/regional-mid-atlantic-banks/cznc-citizens-and-northern-corp/"},"dars_overall":{"type":"lock","html":"<a class=\"fa fa-lock t-text-orange-400\" href=\"/order/premium/\"></a>"},"closest_payment_ex_date":"2020-01-24","closest_payment_adjusted_amount":"$0.2700","closest_payment_payable_date":"2020-02-07","closest_payment_qualification":"Qualified","last_price":"$27.02","latest_yield":"4.00%"},{"symbol":{"type":"link","text":"DHC","url":"/dividend-stocks/uncategorized/other/dhc-diversified-healthcare-trust/"},"stock_name,security_category":{"type":"link_with_tag","text":"Diversified Healthcare Trust","tag":null,"url":"/dividend-stocks/uncategorized/other/dhc-diversified-healthcare-trust/"},"dars_overall":{"type":"lock","html":"<a class=\"fa fa-lock t-text-orange-400\" href=\"/order/premium/\"></a>"},"closest_payment_ex_date":"2020-01-24","closest_payment_adjusted_amount":"$0.1500","closest_payment_payable_date":"2020-02-20","closest_payment_qualification":"Non-Qualified","last_price":"$8.04","latest_yield":"7.19%"},{"symbol":{"type":"link","text":"ILPT","url":"/dividend-stocks/financial/reit-industrial/ilpt-industrial-logistics-properties-trust/"},"stock_name,security_category":{"type":"link_with_tag","text":"Industrial Logistics Properties Trust","tag":"REIT","url":"/dividend-stocks/financial/reit-industrial/ilpt-industrial-logistics-properties-trust/"},"dars_overall":{"type":"lock","html":"<a class=\"fa fa-lock t-text-orange-400\" href=\"/order/premium/\"></a>"},"closest_payment_ex_date":"2020-01-24","closest_payment_adjusted_amount":"$0.3300","closest_payment_payable_date":"2020-02-20","closest_payment_qualification":"Non-Qualified","last_price":"$23.01","latest_yield":"5.74%"},{"symbol":{"type":"link","text":"OKE","url":"/dividend-stocks/utilities/gas-utilities/oke-oneok-inc/"},"stock_name,security_category":{"type":"link_with_tag","text":"ONEOK Inc.","tag":"MLP","url":"/dividend-stocks/utilities/gas-utilities/oke-oneok-inc/"},"dars_overall":{"type":"lock","html":"<a class=\"fa fa-lock t-text-orange-400\" href=\"/order/premium/\"></a>"},"closest_payment_ex_date":"2020-01-24","closest_payment_adjusted_amount":"$0.9350","closest_payment_payable_date":"2020-02-14","closest_payment_qualification":"Qualified","last_price":"$74.84","latest_yield":"4.90%"},{"symbol":{"type":"link","text":"OPI","url":"/dividend-stocks/financial/reit-office/opi-office-properties-income-trust/"},"stock_name,security_category":{"type":"link_with_tag","text":"Office Properties Income Trust","tag":"REIT","url":"/dividend-stocks/financial/reit-office/opi-office-properties-income-trust/"},"dars_overall":{"type":"lock","html":"<a class=\"fa fa-lock t-text-orange-400\" href=\"/order/premium/\"></a>"},"closest_payment_ex_date":"2020-01-24","closest_payment_adjusted_amount":"$0.5500","closest_payment_payable_date":"2020-02-20","closest_payment_qualification":"Non-Qualified","last_price":"$34.14","latest_yield":"6.19%"},{"symbol":{"type":"link","text":"SGU","url":"/dividend-stocks/uncategorized/other/sgu-star-gas-partners-lp-unit-lp-int/"},"stock_name,security_category":{"type":"link_with_tag","text":"Star Gas Partners L.P. Unit LP Int","tag":"MLP","url":"/dividend-stocks/uncategorized/other/sgu-star-gas-partners-lp-unit-lp-int/"},"dars_overall":{"type":"lock","html":"<a class=\"fa fa-lock t-text-orange-400\" href=\"/order/premium/\"></a>"},"closest_payment_ex_date":"2020-01-24","closest_payment_adjusted_amount":"$0.1250","closest_payment_payable_date":"2020-02-04","closest_payment_qualification":"Unknown","last_price":"$9.43","latest_yield":"5.27%"},{"symbol":{"type":"link","text":"RY","url":"/dividend-stocks/financial/money-center-banks/ry-royal-bank-of-canada/"},"stock_name,security_category":{"type":"link_with_tag","text":"Royal Bank of Canada","tag":"Common","url":"/dividend-stocks/financial/money-center-banks/ry-royal-bank-of-canada/"},"dars_overall":{"type":"lock","html":"<a class=\"fa fa-lock t-text-orange-400\" href=\"/order/premium/\"></a>"},"closest_payment_ex_date":"2020-01-24","closest_payment_adjusted_amount":"$0.8036","closest_payment_payable_date":"2020-02-24","closest_payment_qualification":"Unknown","last_price":"$80.48","latest_yield":"3.93%"},{"symbol":{"type":"link","text":"RWCB","url":"/dividend-stocks/uncategorized/other/rwcb-redwood-capital-bancorp/"},"stock_name,security_category":{"type":"link_with_tag","text":"Redwood Capital Bancorp","tag":null,"url":"/dividend-stocks/uncategorized/other/rwcb-redwood-capital-bancorp/"},"dars_overall":{"type":"lock","html":"<a class=\"fa fa-lock t-text-orange-400\" href=\"/order/premium/\"></a>"},"closest_payment_ex_date":"2020-01-24","closest_payment_adjusted_amount":"$0.0700","closest_payment_payable_date":"2020-02-11","closest_payment_qualification":"Qualified","last_price":"$18.73","latest_yield":"1.50%"}]}